<?xml version="1.0" encoding="iso-8859-1"?>
<!-- Generator: Adobe Illustrator 19.0.0, SVG Export Plug-In . SVG Version: 6.00 Build 0)  -->
<svg xmlns="http://www.w3.org/2000/svg" xmlns:xlink="http://www.w3.org/1999/xlink" version="1.1" id="Capa_1" x="0px" y="0px" viewBox="0 0 475.5 475.5" style="enable-background:new 0 0 475.5 475.5;" xml:space="preserve" width="512px" height="512px">
<g>
	<g>
		<path d="M475.2,99.366c-0.8-3.2-4-4.8-7.2-5.6h-44l-39.2-19.2c-3.2-1.6-6.4-0.8-8.8,1.6c-2.4,2.4-3.2,5.6-1.6,8.8l19.2,42.4    c-26.4,22.4-40,47.2-41.6,73.6h-3.2c-5.6-19.2-18.4-37.6-37.6-55.2l20-42.4c1.6-3.2,0.8-6.4-1.6-8.8c-2.4-2.4-6.4-3.2-8.8-1.6    l-39.2,18.4l-44-0.8c-3.2,0-6.4,2.4-8,4.8c-0.8,3.2,0,6.4,2.4,8.8l36,30.4c-7.2,16-11.2,31.2-12,45.6h-29.6    c-2.4,0-4.8,0.8-6.4,3.2c-1.6,1.6-2.4,4.8-1.6,7.2l2.4,8h-38.4v-1.6c0-9.6-7.2-16.8-16.8-16.8H16.8c-9.6,0-16.8,7.2-16.8,16.8    v19.2c0,9.6,8,17.6,16.8,17.6h148.8c9.6,0,16.8-7.2,16.8-16.8v-1.6h42.4l3.2,12.8c0.8,3.2,4,5.6,8,5.6h10.4l17.6,101.6l7.2,40    c0.8,4,4,6.4,8,6.4h130.4c4,0,7.2-2.4,8-6.4l24.8-140.8h10.4c4,0,6.4-2.4,8-5.6l9.6-36.8c0.8-2.4,0-4.8-1.6-7.2    c-1.6-1.6-4-3.2-6.4-3.2H448c2.4-19.2-1.6-40.8-11.2-64l36-29.6C475.2,105.766,476,102.566,475.2,99.366z M166.4,236.966    c0,0.8,0,0.8-0.8,0.8H16.8c-0.8,0-0.8,0-0.8-0.8v-19.2c0-0.8,0.8-0.8,0,0l149.6-0.8c0.8,0,0.8,0,0.8,0.8V236.966z M260,127.366    l23.2,0.8c0.8,0,2.4,0,3.2-0.8l20.8-9.6l-12.8,28c-1.6,3.2-0.8,7.2,2.4,9.6c17.6,14.4,29.6,30.4,36,46.4h-60    c0.8-13.6,5.6-28.8,12.8-44c0.8-4,0-8-2.4-10.4L260,127.366z M268,284.166l-5.6-30.4H332l-31.2,44L268,284.166z M392,278.566    l-30.4,44l-45.6-18.4l33.6-48L392,278.566z M379.2,253.766h29.6l-8,11.2L379.2,253.766z M276.8,332.966l-5.6-30.4l20.8,8.8    L276.8,332.966z M285.6,384.966l-4.8-29.6l26.4-38.4l45.6,18.4l-34.4,49.6H285.6z M402.4,386.566h-64.8v-0.8l29.6-43.2l40,16.8    L402.4,386.566z M410.4,342.566l-33.6-14.4l29.6-42.4l12.8,7.2L410.4,342.566z M421.6,275.366l-6.4-3.2l9.6-14.4L421.6,275.366z     M452,216.966l-5.6,20.8h-11.2H252.8h-11.2l-5.6-20.8h27.2H452z M421.6,128.966c-3.2,2.4-4,6.4-2.4,9.6c11.2,23.2,15.2,44,12,62.4    h-64c2.4-23.2,16-44.8,40.8-64.8c3.2-2.4,4-6.4,2.4-9.6l-12.8-28l20.8,10.4c0.8,0.8,2.4,0.8,3.2,0.8h23.2L421.6,128.966z" fill="#69bd2d"/>
	</g>
</g>
<g>
</g>
<g>
</g>
<g>
</g>
<g>
</g>
<g>
</g>
<g>
</g>
<g>
</g>
<g>
</g>
<g>
</g>
<g>
</g>
<g>
</g>
<g>
</g>
<g>
</g>
<g>
</g>
<g>
</g>
</svg>
